{
  "openapi": "3.0.0",
  "info": {
    "title": "testq",
    "version": "1.0"
  },
  "servers": [
    {
      "url": "http://localhost:3000"
    }
  ],
  "paths": {},
  "components": {
    "schemas": {},
    "securitySchemes": {}
  }
}